{
  "name": "trial",
  "authors": [
    "Szabo Bogdan"
  ],
  "description": "The extensible test runner for DLang",
  "copyright": "Copyright © 2017, Szabo Bogdan",
  "license": "MIT",
  "homepage": "http://trial.szabobogdan.com/",
  "dependencies": {},
  "configurations": [
    {
      "name": "executable"
    },
    {
      "name": "trial",
      "excludedSourceFiles": [
        "source/app.d",
        "runner/app.d"
      ],
      "sourcePaths": [
        "lifecycle",
        "tests"
      ],
      "stringImportPaths": [
        "lifecycle/trial"
      ],
      "importPaths": [
        "lifecycle",
        "tests"
      ],
      "dependencies": {
        "fluent-asserts": ">=0.12.0",
        "libdparse": ">=0.8.0"
      }
    },
    {
      "name": "unittest",
      "excludedSourceFiles": [
        "source/app.d",
        "runner/app.d"
      ],
      "sourcePaths": [
        "lifecycle",
        "runner",
        "tests"
      ],
      "stringImportPaths": [
        "lifecycle/trial"
      ],
      "importPaths": [
        "lifecycle",
        "runner",
        "tests"
      ],
      "dependencies": {
        "dub": "~>1.10.0",
        "fluent-asserts": ">=0.12.0",
        "libdparse": {
          "version": ">=0.8.0",
          "optional": true
        },
        "vibe-d:data": "~>0.8.0"
      },
      "subConfigurations": {
        "dub": "library-nonet"
      }
    }
  ],
  "subPackages": [
    {
      "name": "lifecycle",
      "targetType": "library",
      "sourcePaths": [
        "lifecycle"
      ],
      "importPaths": [
        "lifecycle"
      ],
      "dependencies": {
        "fluent-asserts": {
          "version": ">=0.12.0",
          "optional": true
        },
        "libdparse": {
          "version": ">=0.8.0",
          "optional": true
        }
      }
    },
    {
      "name": "runner",
      "targetType": "executable",
      "targetName": "trial",
      "sourcePaths": [
        "runner",
        "lifecycle"
      ],
      "importPaths": [
        "runner",
        "lifecycle"
      ],
      "stringImportPaths": [
        "views",
        "lifecycle"
      ],
      "dependencies": {
        "dub": "~>1.10.0",
        "vibe-d:http": "~>0.8.4",
        "vibe-d:data": "~>0.8.4",
        "libdparse": "~>0.8.7",
        "fluent-asserts": ">=0.12.0"
      },
      "subConfigurations": {
        "dub": "library-nonet"
      }
    }
  ]
}
